{
  "page": 1,
  "per_page": 6,
  "photos": [
    {
      "id": 4134787,
      "width": 3333,
      "height": 5000,
      "url": "https://www.pexels.com/photo/woman-in-gray-sweater-using-macbook-air-4134787/",
      "photographer": "Andrew Neel",
      "photographer_url": "https://www.pexels.com/@andrew",
      "photographer_id": 977589,
      "avg_color": "#7C7E7D",
      "src": {
        "original": "https://images.pexels.com/photos/4134787/pexels-photo-4134787.jpeg",
        "large2x": "https://images.pexels.com/photos/4134787/pexels-photo-4134787.jpeg?auto=compress&cs=tinysrgb&dpr=2&h=650&w=940",
        "large": "https://images.pexels.com/photos/4134787/pexels-photo-4134787.jpeg?auto=compress&cs=tinysrgb&h=650&w=940",
        "medium": "https://images.pexels.com/photos/4134787/pexels-photo-4134787.jpeg?auto=compress&cs=tinysrgb&h=350",
        "small": "https://images.pexels.com/photos/4134787/pexels-photo-4134787.jpeg?auto=compress&cs=tinysrgb&h=130",
        "portrait": "https://images.pexels.com/photos/4134787/pexels-photo-4134787.jpeg?auto=compress&cs=tinysrgb&fit=crop&h=1200&w=800",
        "landscape": "https://images.pexels.com/photos/4134787/pexels-photo-4134787.jpeg?auto=compress&cs=tinysrgb&fit=crop&h=627&w=1200",
        "tiny": "https://images.pexels.com/photos/4134787/pexels-photo-4134787.jpeg?auto=compress&cs=tinysrgb&dpr=1&fit=crop&h=200&w=280"
      },
      "liked": false
    },
    {
      "id": 5076531,
      "width": 6240,
      "height": 4160,
      "url": "https://www.pexels.com/photo/woman-in-white-long-sleeve-shirt-using-macbook-pro-5076531/",
      "photographer": "cottonbro",
      "photographer_url": "https://www.pexels.com/@cottonbro",
      "photographer_id": 1437723,
      "avg_color": "#A7A7AE",
      "src": {
        "original": "https://images.pexels.com/photos/5076531/pexels-photo-5076531.jpeg",
        "large2x": "https://images.pexels.com/photos/5076531/pexels-photo-5076531.jpeg?auto=compress&cs=tinysrgb&dpr=2&h=650&w=940",
        "large": "https://images.pexels.com/photos/5076531/pexels-photo-5076531.jpeg?auto=compress&cs=tinysrgb&h=650&w=940",
        "medium": "https://images.pexels.com/photos/5076531/pexels-photo-5076531.jpeg?auto=compress&cs=tinysrgb&h=350",
        "small": "https://images.pexels.com/photos/5076531/pexels-photo-5076531.jpeg?auto=compress&cs=tinysrgb&h=130",
        "portrait": "https://images.pexels.com/photos/5076531/pexels-photo-5076531.jpeg?auto=compress&cs=tinysrgb&fit=crop&h=1200&w=800",
        "landscape": "https://images.pexels.com/photos/5076531/pexels-photo-5076531.jpeg?auto=compress&cs=tinysrgb&fit=crop&h=627&w=1200",
        "tiny": "https://images.pexels.com/photos/5076531/pexels-photo-5076531.jpeg?auto=compress&cs=tinysrgb&dpr=1&fit=crop&h=200&w=280"
      },
      "liked": false
    },
    {
      "id": 4939815,
      "width": 3737,
      "height": 5606,
      "url": "https://www.pexels.com/photo/man-people-woman-relaxation-4939815/",
      "photographer": "Vlada Karpovich",
      "photographer_url": "https://www.pexels.com/@vlada-karpovich",
      "photographer_id": 2278756,
      "avg_color": "#CBBAAF",
      "src": {
        "original": "https://images.pexels.com/photos/4939815/pexels-photo-4939815.jpeg",
        "large2x": "https://images.pexels.com/photos/4939815/pexels-photo-4939815.jpeg?auto=compress&cs=tinysrgb&dpr=2&h=650&w=940",
        "large": "https://images.pexels.com/photos/4939815/pexels-photo-4939815.jpeg?auto=compress&cs=tinysrgb&h=650&w=940",
        "medium": "https://images.pexels.com/photos/4939815/pexels-photo-4939815.jpeg?auto=compress&cs=tinysrgb&h=350",
        "small": "https://images.pexels.com/photos/4939815/pexels-photo-4939815.jpeg?auto=compress&cs=tinysrgb&h=130",
        "portrait": "https://images.pexels.com/photos/4939815/pexels-photo-4939815.jpeg?auto=compress&cs=tinysrgb&fit=crop&h=1200&w=800",
        "landscape": "https://images.pexels.com/photos/4939815/pexels-photo-4939815.jpeg?auto=compress&cs=tinysrgb&fit=crop&h=627&w=1200",
        "tiny": "https://images.pexels.com/photos/4939815/pexels-photo-4939815.jpeg?auto=compress&cs=tinysrgb&dpr=1&fit=crop&h=200&w=280"
      },
      "liked": false
    },
    {
      "id": 5054213,
      "width": 6134,
      "height": 4089,
      "url": "https://www.pexels.com/photo/person-in-red-pants-sitting-on-couch-using-macbook-5054213/",
      "photographer": "cottonbro",
      "photographer_url": "https://www.pexels.com/@cottonbro",
      "photographer_id": 1437723,
      "avg_color": "#6D6665",
      "src": {
        "original": "https://images.pexels.com/photos/5054213/pexels-photo-5054213.jpeg",
        "large2x": "https://images.pexels.com/photos/5054213/pexels-photo-5054213.jpeg?auto=compress&cs=tinysrgb&dpr=2&h=650&w=940",
        "large": "https://images.pexels.com/photos/5054213/pexels-photo-5054213.jpeg?auto=compress&cs=tinysrgb&h=650&w=940",
        "medium": "https://images.pexels.com/photos/5054213/pexels-photo-5054213.jpeg?auto=compress&cs=tinysrgb&h=350",
        "small": "https://images.pexels.com/photos/5054213/pexels-photo-5054213.jpeg?auto=compress&cs=tinysrgb&h=130",
        "portrait": "https://images.pexels.com/photos/5054213/pexels-photo-5054213.jpeg?auto=compress&cs=tinysrgb&fit=crop&h=1200&w=800",
        "landscape": "https://images.pexels.com/photos/5054213/pexels-photo-5054213.jpeg?auto=compress&cs=tinysrgb&fit=crop&h=627&w=1200",
        "tiny": "https://images.pexels.com/photos/5054213/pexels-photo-5054213.jpeg?auto=compress&cs=tinysrgb&dpr=1&fit=crop&h=200&w=280"
      },
      "liked": false
    },
    {
      "id": 4186329,
      "width": 3783,
      "height": 5675,
      "url": "https://www.pexels.com/photo/macbook-pro-on-brown-wooden-desk-4186329/",
      "photographer": "alleksana",
      "photographer_url": "https://www.pexels.com/@alleksana",
      "photographer_id": 2242986,
      "avg_color": "#626564",
      "src": {
        "original": "https://images.pexels.com/photos/4186329/pexels-photo-4186329.jpeg",
        "large2x": "https://images.pexels.com/photos/4186329/pexels-photo-4186329.jpeg?auto=compress&cs=tinysrgb&dpr=2&h=650&w=940",
        "large": "https://images.pexels.com/photos/4186329/pexels-photo-4186329.jpeg?auto=compress&cs=tinysrgb&h=650&w=940",
        "medium": "https://images.pexels.com/photos/4186329/pexels-photo-4186329.jpeg?auto=compress&cs=tinysrgb&h=350",
        "small": "https://images.pexels.com/photos/4186329/pexels-photo-4186329.jpeg?auto=compress&cs=tinysrgb&h=130",
        "portrait": "https://images.pexels.com/photos/4186329/pexels-photo-4186329.jpeg?auto=compress&cs=tinysrgb&fit=crop&h=1200&w=800",
        "landscape": "https://images.pexels.com/photos/4186329/pexels-photo-4186329.jpeg?auto=compress&cs=tinysrgb&fit=crop&h=627&w=1200",
        "tiny": "https://images.pexels.com/photos/4186329/pexels-photo-4186329.jpeg?auto=compress&cs=tinysrgb&dpr=1&fit=crop&h=200&w=280"
      },
      "liked": false
    },
    {
      "id": 4620862,
      "width": 3500,
      "height": 2333,
      "url": "https://www.pexels.com/photo/woman-in-gray-hijab-sitting-on-couch-4620862/",
      "photographer": "cottonbro",
      "photographer_url": "https://www.pexels.com/@cottonbro",
      "photographer_id": 1437723,
      "avg_color": "#474242",
      "src": {
        "original": "https://images.pexels.com/photos/4620862/pexels-photo-4620862.jpeg",
        "large2x": "https://images.pexels.com/photos/4620862/pexels-photo-4620862.jpeg?auto=compress&cs=tinysrgb&dpr=2&h=650&w=940",
        "large": "https://images.pexels.com/photos/4620862/pexels-photo-4620862.jpeg?auto=compress&cs=tinysrgb&h=650&w=940",
        "medium": "https://images.pexels.com/photos/4620862/pexels-photo-4620862.jpeg?auto=compress&cs=tinysrgb&h=350",
        "small": "https://images.pexels.com/photos/4620862/pexels-photo-4620862.jpeg?auto=compress&cs=tinysrgb&h=130",
        "portrait": "https://images.pexels.com/photos/4620862/pexels-photo-4620862.jpeg?auto=compress&cs=tinysrgb&fit=crop&h=1200&w=800",
        "landscape": "https://images.pexels.com/photos/4620862/pexels-photo-4620862.jpeg?auto=compress&cs=tinysrgb&fit=crop&h=627&w=1200",
        "tiny": "https://images.pexels.com/photos/4620862/pexels-photo-4620862.jpeg?auto=compress&cs=tinysrgb&dpr=1&fit=crop&h=200&w=280"
      },
      "liked": false
    }
  ],
  "total_results": 8000,
  "next_page": "https://api.pexels.com/v1/search/?page=2&per_page=6&query=laptop"
}
